<?xml version="1.0" encoding="UTF-8"?>
<session version="1.0">
<refactoring comment="Delete resource &apos;JdbcAssessment&apos;" deleteContents="true" description="Delete resource &apos;JdbcAssessment&apos;" element1="/JdbcAssessment" flags="7" id="org.eclipse.ltk.core.refactoring.delete.resources" resources="1" stamp="1635570196161"/>
</session>